
numbered_entities(NP (NUMBERL 1/CD))(NP (NUMBERL 2/CD))(NP (NUMBERL 3/CD))(NP (NUMBERL 1/CD))(NP (NUMBERL 1/CD))(NP (NUMBERL 0.02/CD))(NP (NUMBERL 20khz/CD))(NP (NUMBERL 20hz/CD))(NP (NUMBERL 1/CD))(NP (NUMBERL 25/CD))(NP (NUMBERL 40/CD))(NP (NUMBERL 15/CD))(NP (NUMBERL 2/CD))(NP (NUMBERL 1/CD))(NP (NUMBERL 2/CD))(NP (NUMBERL 3/CD))(NP (NUMBERL 4/CD))(NP (NUMBERL 2.1/CD))(NP (NUMBERL 2/CD))(NP (NUMBERL 2/CD))(NP (NUMBERL 2/CD))(NP (NUMBERL 2.2/CD))(NP (NUMBERL 36/CD))(NP (NUMBERL 39/CD))(NP (NUMBERL 33/CD))(NP (NUMBERL 3/CD))(NP (NUMBERL 3/CD))(NP (NUMBERL 4/CD))(NP (NUMBERL 5/CD))(NP (NUMBERL 3/CD))(NP (NUMBERL 13/CD))(NP (NUMBERL 38/CD))(NP (NUMBERL 46/CD))(NP (NUMBERL 9/CD))(NP (NUMBERL 19/CD))(NP (NUMBERL 20/CD))(NP (NUMBERL 22/CD))(NP (NUMBERL 23/CD))(NP (NUMBERL 2d/CD))(NP (NUMBERL 12/CD))(NP (NUMBERL 16/CD))(NP (NUMBERL 1/CD))(NP (NUMBERL 2/CD))(NP (NUMBERL 3/CD))(NP (NUMBERL 4/CD))(NP (NUMBERL 3.1/CD))(NP (NUMBERL 2d/CD))(NP (NUMBERL 7/CD))(NP (NUMBERL 7/CD))(NP (NUMBERL 7/CD))(NP (NUMBERL 9/CD))(NP (NUMBERL 11/CD))(NP (NUMBERL 12/CD))(NP (NUMBERL 640mb/CD))(NP (NUMBERL one/CD) (NUMBERL 195mhz/CD r10000/NN))(NP (NUMBERL 12/CD))(NP (NUMBERL 4.1/CD))(NP (NUMBERL 1/CD))(NP (NUMBERL 3/CD))(NP (NUMBERL 4/CD))(NP (NUMBERL 6/CD) (NUMBERL 7/CD) (NUMBERL 18/CD))(NP (NUMBERL 0.0/CD) (NUMBERL 0.004/CD room/NN) (NUMBERL 20/CD))(NP (NUMBERL 12/CD) (NUMBERL 43/CD) (NUMBERL 0.1/CD))(NP (NUMBERL 581/CD) (NUMBERL 3.0/CD) (NUMBERL 0.352/CD maze/NN))(NP (NUMBERL 602/CD) (NUMBERL 172/CD) (NUMBERL 1,187/CD))(NP (NUMBERL 4.9/CD) (NUMBERL 0.803/CD floor/NN) (NUMBERL 1,772/CD))(NP (NUMBERL 814/CD) (NUMBERL 5,533/CD) (NUMBERL 22.7/CD))(NP
  (NUMBERL 31,681/CD)
  (NUMBERL 186.3/CD)
  (NUMBERL 18.694/CD tabl/NN))(NP (NUMBERL 1/CD))(NP (NUMBERL 13/CD))(NP (NUMBERL 13/CD))(NP (NUMBERL 0/CD) (NUMBERL 11k/CD) (NUMBERL 1k/CD))(NP (NUMBERL 2k/CD) (NUMBERL 6k/CD) (NUMBERL 3k/CD))(NP (NUMBERL 4k/CD) (NUMBERL 5k/CD) (NUMBERL 7k/CD))(NP (NUMBERL 8k/CD) (NUMBERL 9k/CD) (NUMBERL 10k/CD))(NP (NUMBERL 5k/CD) (NUMBERL 4k/CD) (NUMBERL 3k/CD))(NP (NUMBERL 2k/CD) (NUMBERL 1k/CD maze/NN) (NUMBERL 2x2/CD grid/NN))(NP (NUMBERL 13/CD))(NP (NUMBERL 12/CD))(NP (NUMBERL 2/CD))(NP (NUMBERL 2/CD))(NP (NUMBERL 3/CD))(NP (NUMBERL 6/CD) (NUMBERL 0/CD) (NUMBERL 1/CD))(NP (NUMBERL 0/CD) (NUMBERL 1.0/CD) (NUMBERL 0.0/CD))(NP (NUMBERL 1/CD) (NUMBERL 7/CD) (NUMBERL 1/CD))(NP (NUMBERL 7.0/CD) (NUMBERL 0.1/CD) (NUMBERL 2/CD))(NP (NUMBERL 37/CD) (NUMBERL 3/CD) (NUMBERL 25.0/CD))(NP (NUMBERL 0.3/CD) (NUMBERL 4/CD) (NUMBERL 473/CD))(NP (NUMBERL 42/CD) (NUMBERL 129.0/CD) (NUMBERL 6.0/CD))(NP (NUMBERL 8/CD) (NUMBERL 10,036/CD) (NUMBERL 825/CD))(NP (NUMBERL 833.0/CD) (NUMBERL 228.2/CD room/NN) (NUMBERL 20/CD))(NP (NUMBERL 0/CD) (NUMBERL 3/CD) (NUMBERL 0/CD))(NP (NUMBERL 1.0/CD) (NUMBERL 0.0/CD) (NUMBERL 1/CD))(NP (NUMBERL 31/CD) (NUMBERL 3/CD) (NUMBERL 7.0/CD))(NP (NUMBERL 0.1/CD) (NUMBERL 2/CD) (NUMBERL 177/CD))(NP (NUMBERL 16/CD) (NUMBERL 25.1/CD) (NUMBERL 0.3/CD))(NP (NUMBERL 4/CD) (NUMBERL 1,939/CD) (NUMBERL 178/CD))(NP (NUMBERL 127.9/CD) (NUMBERL 5.2/CD) (NUMBERL 8/CD))(NP (NUMBERL 33,877/CD) (NUMBERL 3,024/CD) (NUMBERL 794.4/CD))(NP (NUMBERL 7/CD) (NUMBERL 1/CD) (NUMBERL 1.0/CD))(NP (NUMBERL 0.0/CD) (NUMBERL 1/CD) (NUMBERL 90/CD))(NP (NUMBERL 9/CD) (NUMBERL 6.8/CD) (NUMBERL 0.1/CD))(NP (NUMBERL 2/CD) (NUMBERL 576/CD) (NUMBERL 59/CD))(NP (NUMBERL 25.3/CD) (NUMBERL 0.4/CD) (NUMBERL 4/CD))(NP (NUMBERL 7,217/CD) (NUMBERL 722/CD) (NUMBERL 120.2/CD))(NP (NUMBERL 6.5/CD) (NUMBERL 8/CD) (NUMBERL 132,920/CD))(NP
  (NUMBERL 13,070/CD)
  (NUMBERL 672.5/CD)
  (NUMBERL 188.9/CD maze/NN))(NP (NUMBERL 602/CD) (NUMBERL 0/CD) (NUMBERL 11/CD))(NP (NUMBERL 1/CD) (NUMBERL 0.4/CD) (NUMBERL 0.0/CD))(NP (NUMBERL 1/CD) (NUMBERL 167/CD) (NUMBERL 16/CD))(NP (NUMBERL 2.3/CD) (NUMBERL 0.0/CD) (NUMBERL 2/CD))(NP (NUMBERL 1,162/CD) (NUMBERL 107/CD) (NUMBERL 8.6/CD))(NP (NUMBERL 0.1/CD) (NUMBERL 4/CD) (NUMBERL 13,874/CD))(NP (NUMBERL 1,272/CD) (NUMBERL 36.2/CD) (NUMBERL 2.0/CD))(NP (NUMBERL 8/CD) (NUMBERL 236,891/CD) (NUMBERL 21,519/CD))(NP (NUMBERL 183.1/CD) (NUMBERL 46.7/CD floor/NN) (NUMBERL 1,772/CD))(NP (NUMBERL 0/CD) (NUMBERL 23/CD) (NUMBERL 4/CD))(NP (NUMBERL 1.0/CD) (NUMBERL 0.0/CD) (NUMBERL 1/CD))(NP (NUMBERL 289/CD) (NUMBERL 39/CD) (NUMBERL 6.1/CD))(NP (NUMBERL 0.1/CD) (NUMBERL 2/CD) (NUMBERL 1,713/CD))(NP (NUMBERL 213/CD) (NUMBERL 21.5/CD) (NUMBERL 0.4/CD))(NP (NUMBERL 4/CD) (NUMBERL 18,239/CD) (NUMBERL 2,097/CD))(NP (NUMBERL 93.7/CD) (NUMBERL 5.3/CD) (NUMBERL 8/CD))(NP (NUMBERL 294,635/CD) (NUMBERL 32,061/CD) (NUMBERL 467.0/CD))(NP (NUMBERL 28/CD) (NUMBERL 5/CD) (NUMBERL 1.0/CD))(NP (NUMBERL 0.0/CD) (NUMBERL 1/CD) (NUMBERL 347/CD))(NP (NUMBERL 49/CD) (NUMBERL 6.3/CD) (NUMBERL 0.1/CD))(NP (NUMBERL 2/CD) (NUMBERL 2,135/CD) (NUMBERL 293/CD))(NP (NUMBERL 22.7/CD) (NUMBERL 0.4/CD) (NUMBERL 4/CD))(NP (NUMBERL 23,264/CD) (NUMBERL 2,830/CD) (NUMBERL 101.8/CD))(NP (NUMBERL 6.8/CD) (NUMBERL 8/CD) (NUMBERL 411,640/CD))(NP
  (NUMBERL 48,650/CD)
  (NUMBERL 529.8/CD)
  (NUMBERL 169.5/CD tabl/NN))(NP (NUMBERL 2/CD))(NP (NUMBERL 8/CD))(NP (NUMBERL 2/CD))(NP (NUMBERL 1,851,082,741/CD))(NP (NUMBERL 10/CD))(NP (NUMBERL 411,640/CD))(NP (NUMBERL 14/CD))(NP (NUMBERL 0/CD) (NUMBERL 11k/CD) (NUMBERL 1k/CD))(NP (NUMBERL 2k/CD) (NUMBERL 6k/CD) (NUMBERL 3k/CD))(NP (NUMBERL 4k/CD) (NUMBERL 5k/CD) (NUMBERL 7k/CD))(NP (NUMBERL 8k/CD) (NUMBERL 9k/CD) (NUMBERL 10k/CD))(NP (NUMBERL 100k/CD) (NUMBERL 200k/CD) (NUMBERL 300k/CD))(NP (NUMBERL 400k/CD))(NP (NUMBERL 14/CD))(NP (NUMBERL 15/CD))(NP (NUMBERL one/CD))(NP (NUMBERL 1/CD) (NUMBERL 2/CD) (NUMBERL 3/CD))(NP (NUMBERL 4/CD) (NUMBERL 5/CD) (NUMBERL 6/CD))(NP (NUMBERL 7/CD) (NUMBERL 8/CD) (NUMBERL 10/CD))(NP (NUMBERL 100/CD) (NUMBERL 1000/CD) (NUMBERL 10,000/CD))(NP (NUMBERL 100,000/CD) (NUMBERL 1,000,000/CD))(NP (NUMBERL 15/CD))(NP (NUMBERL 0/CD) (NUMBERL 1/CD) (NUMBERL 1/CD))(NP (NUMBERL 0/CD) (NUMBERL 16.0000/CD) (NUMBERL 1/CD))(NP (NUMBERL 16/CD) (NUMBERL 16/CD) (NUMBERL 0/CD))(NP (NUMBERL 6.5000/CD) (NUMBERL 2/CD) (NUMBERL 104/CD))(NP (NUMBERL 104/CD) (NUMBERL 0/CD) (NUMBERL 4.2981/CD))(NP (NUMBERL 3/CD) (NUMBERL 447/CD) (NUMBERL 446/CD))(NP (NUMBERL 1/CD) (NUMBERL 2.9193/CD) (NUMBERL 4/CD))(NP (NUMBERL 1,302/CD) (NUMBERL 1,296/CD) (NUMBERL 6/CD))(NP (NUMBERL 2.3920/CD) (NUMBERL 5/CD) (NUMBERL 3,100/CD))(NP (NUMBERL 3,092/CD) (NUMBERL 8/CD) (NUMBERL 2.0715/CD))(NP (NUMBERL 84,788/CD) (NUMBERL 72,469/CD) (NUMBERL 12,319/CD))(NP (NUMBERL 1.2920/CD))(NP (NUMBERL 154,790/CD) (NUMBERL 114,664/CD) (NUMBERL 40,126/CD))(NP
  (NUMBERL 61,079/CD)
  (NUMBERL 35,355/CD)
  (NUMBERL 1.1789/CD tabl/NN))(NP (NUMBERL 3/CD))(NP (NUMBERL 3/CD))(NP (NUMBERL 8/CD))(NP (NUMBERL 6/CD))(NP (NUMBERL 7/CD))(NP (NUMBERL 256/CD))(NP (NUMBERL 0/CD) (NUMBERL 11k/CD) (NUMBERL 1k/CD))(NP (NUMBERL 2k/CD) (NUMBERL 6k/CD) (NUMBERL 3k/CD))(NP (NUMBERL 4k/CD) (NUMBERL 5k/CD) (NUMBERL 7k/CD))(NP (NUMBERL 8k/CD) (NUMBERL 9k/CD) (NUMBERL 10k/CD))(NP (NUMBERL 0.05/CD) (NUMBERL 0.10/CD) (NUMBERL 0.15/CD))(NP (NUMBERL 8/CD))(NP (NUMBERL 6/CD))(NP (NUMBERL 16/CD))(NP (NUMBERL 16/CD))(NP (NUMBERL 16/CD))(NP (NUMBERL 4.4/CD))(NP (NUMBERL 640mb/CD))(NP (NUMBERL two/CD) (NUMBERL 195mhz/CD r10000/NN))(NP (NUMBERL 17/CD))(NP (NUMBERL 12c/CD))(NP (NUMBERL 17b/CD))(NP (NUMBERL 5/CD))(NP (NUMBERL 3d/CD))(NP (NUMBERL 34/CD))(NP (NUMBERL 5.3/CD))(NP (NUMBERL 1/CD))(NP (NUMBERL 2/CD))(NP (NUMBERL 3/CD))(NP (NUMBERL 4/CD))(NP (NUMBERL 5/CD))(NP (NUMBERL 6/CD))(NP (NUMBERL 7/CD))(NP (NUMBERL 18/CD))(NP (NUMBERL 18/CD))(NP (NUMBERL 19/CD))(NP (NUMBERL 20/CD))(NP (NUMBERL one/CD))(NP (NUMBERL 0.8/CD))(NP (NUMBERL 49/CD))(NP (NUMBERL 23/CD))(NP (NUMBERL 6.3/CD))(NP (NUMBERL 48/CD))(NP (NUMBERL one/CD))(NP (NUMBERL 10/CD))(NP (NUMBERL 384/CD))(NP (NUMBERL 6.4/CD))(NP (NUMBERL 1/CD))(NP (NUMBERL 2/CD))(NP (NUMBERL 3/CD))(NP (NUMBERL 1996/CD))(NP (NUMBERL 1988/CD))(NP (NUMBERL 34/CD))(NP (NUMBERL 1991/CD))(NP (NUMBERL 50/CD))(NP (NUMBERL 56/CD))(NP (NUMBERL 1982/CD))
Size: 225
------
Found word! reverber - theory - statistical
Found word! reverber - theory - statistical
Found word! reverber - theory - statistical
Found word! reverber - theory - statistical
Found word! reverber - theory - statistical
Found word! reverber - theory - statistical
Found word! reverber - theory - statistical
Found word! reverber - theory - statistical
Found word! reverber - theory - statistical
Found word! reverber - theory - statistical
Found word! reverber - theory - statistical
Found word! reverber - theory - statistical
Found word! reverber - theory - statistical
Found word! reverber - theory - statistical
Found word! reverber - theory - statistical
Found word! reverber - theory - statistical
Found word! reverber - theory - statistical
Found word! reverber - theory - statistical
Found word! reverber - theory - statistical
Found word! reverber - theory - statistical
Found word! reverber - theory - statistical
Found word! reverber - theory - statistical
Found word! reverber - theory - statistical
Found word! reverber - theory - statistical
Found word! reverber - theory - statistical
Found word! reverber - theory - statistical
Found word! reverber - theory - statistical
Found word! reverber - theory - statistical
Found word! statist - theory - statistical
Found word! statist - theory - statistical
Found word! statist - theory - statistical
Found word! statist - theory - statistical
Found word! statist - theory - statistical
Found word! statist - theory - statistical
Found word! reverber - theory - statistical
Found word! statist - theory - statistical
Found word! reverber - theory - statistical
Found word! reverber - theory - statistical
Found word! statist - theory - statistical
Found word! reverber - theory - statistical
Found word! reverber - theory - statistical
Found word! reverber - theory - statistical
Found word! reverber - theory - statistical
Found word! reverber - theory - statistical
Found word! reverber - theory - statistical
Found word! reverber - theory - statistical
Found word! reverber - theory - statistical
Found word! reverber - theory - statistical
Found word! reverber - theory - statistical
Found word! reverber - theory - statistical
Found word! reverber - theory - statistical
Found word! reverber - theory - statistical
Found word! reverber - theory - statistical
Found word! statist - theory - statistical
Found word! pressur - theory - statistical
Found word! beam - theory - geometric
Found word! imag - theory - geometric
Found word! trace - theory - geometric
Found word! beam - theory - geometric
Found word! beam - theory - geometric
Found word! trace - theory - geometric
Found word! beam - theory - geometric
Found word! trace - theory - geometric
Found word! beam - theory - geometric
Found word! trace - theory - geometric
Found word! imag - theory - geometric
Found word! imag - theory - geometric
Found word! geometr - theory - geometric
Found word! geometr - theory - geometric
Found word! beam - theory - geometric
Found word! trace - theory - geometric
Found word! beam - theory - geometric
Found word! imag - theory - geometric
Found word! trace - theory - geometric
Found word! imag - theory - geometric
Found word! imag - theory - geometric
Found word! imag - theory - geometric
Found word! imag - theory - geometric
Found word! ray - theory - geometric
Found word! trace - theory - geometric
Found word! ray - theory - geometric
Found word! trace - theory - geometric
Found word! ray - theory - geometric
Found word! trace - theory - geometric
Found word! ray - theory - geometric
Found word! trace - theory - geometric
Found word! ray - theory - geometric
Found word! trace - theory - geometric
Found word! trace - theory - geometric
Found word! trace - theory - geometric
Found word! ray - theory - geometric
Found word! beam - theory - geometric
Found word! trace - theory - geometric
Found word! beam - theory - geometric
Found word! beam - theory - geometric
Found word! beam - theory - geometric
Found word! beam - theory - geometric
Found word! trace - theory - geometric
Found word! beam - theory - geometric
Found word! imag - theory - geometric
Found word! trace - theory - geometric
Found word! beam - theory - geometric
Found word! beam - theory - geometric
Found word! beam - theory - geometric
Found word! trace - theory - geometric
Found word! imag - theory - geometric
Found word! beam - theory - geometric
Found word! trace - theory - geometric
Found word! beam - theory - geometric
Found word! trace - theory - geometric
Found word! beam - theory - geometric
Found word! trace - theory - geometric
Found word! geometr - theory - geometric
Found word! beam - theory - geometric
Found word! trace - theory - geometric
Found word! geometr - theory - geometric
Found word! beam - theory - geometric
Found word! trace - theory - geometric
Found word! geometr - theory - geometric
Found word! beam - theory - geometric
Found word! trace - theory - geometric
Found word! geometr - theory - geometric
Found word! ray - theory - geometric
Found word! beam - theory - geometric
Found word! trace - theory - geometric
Found word! beam - theory - geometric
Found word! beam - theory - geometric
Found word! beam - theory - geometric
Found word! beam - theory - geometric
Found word! beam - theory - geometric
Found word! trace - theory - geometric
Found word! beam - theory - geometric
Found word! trace - theory - geometric
Found word! beam - theory - geometric
Found word! trace - theory - geometric
Found word! beam - theory - geometric
Found word! beam - theory - geometric
Found word! trace - theory - geometric
Found word! beam - theory - geometric
Found word! beam - theory - geometric
Found word! beam - theory - geometric
Found word! trace - theory - geometric
Found word! beam - theory - geometric
Found word! trace - theory - geometric
Found word! beam - theory - geometric
Found word! trace - theory - geometric
Found word! beam - theory - geometric
Found word! trace - theory - geometric
Found word! beam - theory - geometric
Found word! trace - theory - geometric
Found word! imag - theory - geometric
Found word! beam - theory - geometric
Found word! trace - theory - geometric
Found word! beam - theory - geometric
Found word! trace - theory - geometric
Found word! beam - theory - geometric
Found word! beam - theory - geometric
Found word! trace - theory - geometric
Found word! geometr - theory - geometric
Found word! beam - theory - geometric
Found word! trace - theory - geometric
Found word! beam - theory - geometric
Found word! trace - theory - geometric
Found word! beam - theory - geometric
Found word! trace - theory - geometric
Found word! beam - theory - geometric
Found word! beam - theory - geometric
Found word! beam - theory - geometric
Found word! beam - theory - geometric
Found word! trace - theory - geometric
Found word! beam - theory - geometric
Found word! beam - theory - geometric
Found word! beam - theory - geometric
Found word! beam - theory - geometric
Found word! beam - theory - geometric
Found word! trace - theory - geometric
Found word! beam - theory - geometric
Found word! beam - theory - geometric
Found word! trace - theory - geometric
Found word! beam - theory - geometric
Found word! beam - theory - geometric
Found word! beam - theory - geometric
Found word! beam - theory - geometric
Found word! trace - theory - geometric
Found word! beam - theory - geometric
Found word! trace - theory - geometric
Found word! beam - theory - geometric
Found word! beam - theory - geometric
Found word! beam - theory - geometric
Found word! beam - theory - geometric
Found word! beam - theory - geometric
Found word! beam - theory - geometric
Found word! ray - theory - geometric
Found word! beam - theory - geometric
Found word! beam - theory - geometric
Found word! beam - theory - geometric
Found word! imag - theory - geometric
Found word! ray - theory - geometric
Found word! beam - theory - geometric
Found word! beam - theory - geometric
Found word! imag - theory - geometric
Found word! geometr - theory - geometric
Found word! imag - theory - geometric
Found word! geometr - theory - geometric
Found word! beam - theory - geometric
Found word! trace - theory - geometric
Found word! beam - theory - geometric
Found word! trace - theory - geometric
Found word! beam - theory - geometric
Found word! trace - theory - geometric
Found word! beam - theory - geometric
Found word! trace - theory - geometric
Found word! beam - theory - geometric
Found word! trace - theory - geometric
Found word! beam - theory - geometric
Found word! trace - theory - geometric
Found word! beam - theory - geometric
Found word! imag - theory - geometric
Found word! trace - theory - geometric
Found word! beam - theory - geometric
Found word! trace - theory - geometric
Found word! beam - theory - geometric
Found word! imag - theory - geometric
Found word! beam - theory - geometric
Found word! imag - theory - geometric
Found word! beam - theory - geometric
Found word! trace - theory - geometric
Found word! beam - theory - geometric
Found word! trace - theory - geometric
Found word! beam - theory - geometric
Found word! trace - theory - geometric
Found word! beam - theory - geometric
Found word! imag - theory - geometric
Found word! trace - theory - geometric
Found word! beam - theory - geometric
Found word! trace - theory - geometric
Found word! beam - theory - geometric
Found word! trace - theory - geometric
Found word! beam - theory - geometric
Found word! trace - theory - geometric
Found word! beam - theory - geometric
Found word! trace - theory - geometric
Found word! beam - theory - geometric
Found word! beam - theory - geometric
Found word! imag - theory - geometric
Found word! beam - theory - geometric
Found word! trace - theory - geometric
Found word! beam - theory - geometric
Found word! beam - theory - geometric
Found word! ray - theory - geometric
Found word! beam - theory - geometric
Found word! trace - theory - geometric
Found word! ray - theory - geometric
Found word! beam - theory - geometric
Found word! beam - theory - geometric
Found word! beam - theory - geometric
Found word! beam - theory - geometric
Found word! beam - theory - geometric
Found word! imag - theory - geometric
Found word! imag - theory - geometric
Found word! imag - theory - geometric
Found word! imag - theory - geometric
Found word! geometr - theory - geometric
Found word! geometr - theory - geometric
Found word! geometr - theory - geometric
Found word! beam - theory - geometric
Found word! trace - theory - geometric
Found word! geometr - theory - geometric
Found word! beam - theory - geometric
Found word! geometr - theory - geometric
Found word! beam - theory - geometric
Found word! trace - theory - geometric
Found word! beam - theory - geometric
Found word! trace - theory - geometric
Found word! beam - theory - geometric
Found word! trace - theory - geometric
Found word! beam - theory - geometric
Found word! beam - theory - geometric
Found word! trace - theory - geometric
Found word! geometr - theory - geometric
Found word! beam - theory - geometric
Found word! trace - theory - geometric
Found word! beam - theory - geometric
Found word! beam - theory - geometric
Found word! trace - theory - geometric
Found word! beam - theory - geometric
Found word! trace - theory - geometric
Found word! beam - theory - geometric
Found word! beam - theory - geometric
Found word! trace - theory - geometric
Found word! beam - theory - geometric
Found word! beam - theory - geometric
Found word! trace - theory - geometric
Found word! beam - theory - geometric
Found word! beam - theory - geometric
Found word! trace - theory - geometric
Found word! trace - theory - geometric
Found word! beam - theory - geometric
Found word! beam - theory - geometric
Found word! imag - theory - geometric
Found word! beam - theory - geometric
Found word! beam - theory - geometric
Found word! beam - theory - geometric
Found word! beam - theory - geometric
Found word! beam - theory - geometric
Found word! ray - theory - geometric
Found word! beam - theory - geometric
Found word! trace - theory - geometric
Found word! geometr - theory - geometric
Found word! beam - theory - geometric
Found word! ray - theory - geometric
Found word! beam - theory - geometric
Found word! trace - theory - geometric
Found word! beam - theory - geometric
Found word! beam - theory - geometric
Found word! beam - theory - geometric
Found word! trace - theory - geometric
Found word! beam - theory - geometric
Found word! trace - theory - geometric
Found word! beam - theory - geometric
Found word! trace - theory - geometric
Found word! beam - theory - geometric
Found word! trace - theory - geometric
Found word! beam - theory - geometric
Found word! trace - theory - geometric
Found word! imag - theory - geometric
Found word! beam - theory - geometric
Found word! trace - theory - geometric
Found word! beam - theory - geometric
Found word! trace - theory - geometric
Found word! beam - theory - geometric
Found word! beam - theory - geometric
Found word! ray - theory - geometric
Found word! trace - theory - geometric
Found word! ray - theory - geometric
Found word! trace - theory - geometric
Found word! ray - theory - geometric
Found word! trace - theory - geometric
Found word! beam - theory - geometric
Found word! trace - theory - geometric
Found word! ray - theory - geometric
Found word! trace - theory - geometric
Found word! beam - theory - geometric
Found word! trace - theory - geometric
Found word! geometr - theory - geometric
Found word! beam - theory - geometric
Found word! trace - theory - geometric
Found word! imag - theory - geometric
Found word! beam - theory - geometric
Found word! trace - theory - geometric
Found word! beam - theory - geometric
Found word! beam - theory - geometric
Found word! trace - theory - geometric
Found word! ray - theory - geometric
Found word! trace - theory - geometric
Found word! imag - theory - geometric
Found word! geometr - theory - geometric
Found word! ray - theory - geometric
Found word! imag - theory - geometric
Found word! ray - theory - geometric
Found word! trace - theory - geometric
Found word! beam - theory - geometric
Found word! trace - theory - geometric
Found word! beam - theory - geometric
Found word! imag - theory - geometric
Found word! trace - theory - geometric
Found word! trace - theory - geometric
Found word! beam - theory - geometric
Found word! trace - theory - geometric
Found word! ray - theory - geometric
Found word! trace - theory - geometric
Found word! beam - theory - geometric
Found word! trace - theory - geometric
Found word! boundari - theory - wave
Found word! wave - theory - wave
Found word! wave - theory - wave
Found word! integr - theory - wave
Found word! integr - theory - wave
Found word! wave - theory - wave
Found word! boundari - theory - wave
Found word! element - theory - wave
Found word! element - theory - wave
Found word! boundari - theory - wave
Found word! boundari - theory - wave
Found word! integr - theory - wave
Found word! boundari - theory - wave
Found word! boundari - theory - wave
Found word! boundari - theory - wave
Found word! boundari - theory - wave
Found word! boundari - theory - wave
Found word! boundari - theory - wave
Found word! boundari - theory - wave
Found word! boundari - theory - wave
Found word! boundari - theory - wave
Found word! boundari - theory - wave
Found word! boundari - theory - wave
Found word! boundari - theory - wave
Found word! boundari - theory - wave
Found word! boundari - theory - wave
Found word! boundari - theory - wave
Found word! integr - theory - wave
Found word! element - theory - wave
Found word! integr - theory - wave
Found word! boundari - theory - wave
Found word! boundari - theory - wave
Found word! wave - theory - wave
Found word! wave - theory - wave
Found word! wave - theory - wave
Found word! boundari - theory - wave
Found word! boundari - theory - wave
Found word! integr - theory - wave
Found word! boundari - theory - wave
Found word! boundari - theory - wave
Found word! boundari - theory - wave
Found word! boundari - theory - wave
Found word! integr - theory - wave
Statistical - 55, geometric - 318, wave - 43
