
numbered_entities(NP (NUMBERL 2016/CD))(NP (NUMBERL 2x2/CD))(NP (NUMBERL 16x16/CD))(NP (NUMBERL 4/CD))(NP (NUMBERL 1/CD))(NP (NUMBERL 16x16/CD))(NP (NUMBERL 4/CD))(NP (NUMBERL 1/CD))(NP (NUMBERL 2/CD))(NP (NUMBERL 6/CD))(NP (NUMBERL one/CD))(NP (NUMBERL one/CD) (NUMBERL 1/CD hand/NN))(NP (NUMBERL 11/CD))(NP (NUMBERL 12/CD))(NP (NUMBERL 13/CD))(NP (NUMBERL 15/CD))(NP (NUMBERL 16/CD))(NP (NUMBERL 20/CD))(NP (NUMBERL 30/CD))(NP (NUMBERL 31/CD))(NP (NUMBERL 32/CD))(NP (NUMBERL 34/CD))(NP (NUMBERL two/CD))(NP (NUMBERL two/CD))(NP (NUMBERL two/CD))(NP (NUMBERL three/CD))(NP (NUMBERL eight/CD))(NP (NUMBERL one/CD))(NP (NUMBERL 1/CD))(NP (NUMBERL 3/CD))(NP (NUMBERL three/CD))(NP (NUMBERL 16x16/CD))(NP (NUMBERL 1/CD))(NP (NUMBERL 1x1/CD))(NP (NUMBERL 6x6/CD))(NP (NUMBERL 1/CD))(NP (NUMBERL 16x16/CD))(NP (NUMBERL 1x1/CD) (NUMBERL 2x2/CD) (NUMBERL 3x3/CD))(NP (NUMBERL 18s/CD) (NUMBERL 6.67/CD %/NN) (NUMBERL 78s/CD))(NP (NUMBERL 328s/CD))(NP (NUMBERL 12s/CD) (NUMBERL 9.31/CD %/NN) (NUMBERL 54s/CD))(NP (NUMBERL 188s/CD) (NUMBERL 2.31/CD %/NN))(NP (NUMBERL 10s/CD) (NUMBERL 8.22/CD %/NN) (NUMBERL 42s/CD))(NP (NUMBERL 140s/CD))(NP (NUMBERL 26s/CD) (NUMBERL 2.93/CD %/NN) (NUMBERL 59s/CD))(NP (NUMBERL 12s/CD) (NUMBERL 5.70/CD %/NN) (NUMBERL 52s/CD))(NP (NUMBERL 215s/CD) (NUMBERL 1.14/CD %/NN))(NP (NUMBERL 8s/CD) (NUMBERL 6.33/CD %/NN) (NUMBERL 33s/CD))(NP (NUMBERL 138s/CD) (NUMBERL 1.51/CD %/NN))(NP (NUMBERL 2/CD))(NP (NUMBERL 1x1/CD))(NP (NUMBERL 4x4/CD))(NP (NUMBERL 2/CD))(NP (NUMBERL 4/CD))(NP (NUMBERL 1x1/CD))(NP (NUMBERL 2x2/CD))(NP (NUMBERL 3x3/CD))(NP (NUMBERL 4x4/CD))(NP (NUMBERL 5x5/CD))(NP (NUMBERL 6x6/CD))(NP (NUMBERL 1x1/CD))(NP (NUMBERL 2x2/CD))(NP (NUMBERL 3x3/CD))(NP (NUMBERL 4x4/CD))(NP (NUMBERL 5x5/CD))(NP (NUMBERL 1x1/CD))(NP (NUMBERL 6x6/CD))(NP (NUMBERL 4/CD))(NP (NUMBERL 1x1/CD))(NP (NUMBERL 2x2/CD))(NP (NUMBERL 3x3/CD))(NP (NUMBERL 4x4/CD))(NP (NUMBERL 5x5/CD))(NP (NUMBERL 6x6/CD))(NP (NUMBERL 1x1/CD))(NP (NUMBERL 2x2/CD))(NP (NUMBERL 3x3/CD))(NP (NUMBERL 4x4/CD))(NP (NUMBERL 5x5/CD))(NP (NUMBERL 1x1/CD))(NP (NUMBERL 6x6/CD))(NP (NUMBERL 5/CD))(NP (NUMBERL 1x1/CD))(NP (NUMBERL 2x2/CD))(NP (NUMBERL 3x3/CD))(NP (NUMBERL 4x4/CD))(NP (NUMBERL 5x5/CD))(NP (NUMBERL 6x6/CD))(NP (NUMBERL 1x1/CD))(NP (NUMBERL 2x2/CD))(NP (NUMBERL 3x3/CD))(NP (NUMBERL 4x4/CD))(NP (NUMBERL 5x5/CD))(NP (NUMBERL 1x1/CD))(NP (NUMBERL 6x6/CD))(NP (NUMBERL 2/CD))(NP (NUMBERL 3/CD))(NP (NUMBERL 6/CD))(NP (NUMBERL 7/CD))(NP (NUMBERL 8/CD))(NP (NUMBERL 2x2/CD))(NP (NUMBERL 1x1/CD))(NP (NUMBERL 2x2/CD))(NP (NUMBERL 3x3/CD))(NP (NUMBERL 4x4/CD))(NP (NUMBERL 5x5/CD))(NP (NUMBERL 6x6/CD))(NP (NUMBERL 1x1/CD))(NP (NUMBERL 2x2/CD))(NP (NUMBERL 3x3/CD))(NP (NUMBERL 4x4/CD))(NP (NUMBERL 5x5/CD))(NP (NUMBERL 1x1/CD))(NP (NUMBERL 6x6/CD))(NP (NUMBERL 3x3/CD))(NP (NUMBERL 4x4/CD))(NP (NUMBERL 5x5/CD))(NP (NUMBERL 6x6/CD))(NP (NUMBERL 1.68/CD))(NP (NUMBERL 4.01/CD))(NP (NUMBERL 6/CD) (NUMBERL 0/CD) (NUMBERL 1/CD))(NP (NUMBERL 2/CD) (NUMBERL 3/CD) (NUMBERL 4/CD))(NP (NUMBERL 5/CD) (NUMBERL 6/CD) (NUMBERL 7/CD))(NP (NUMBERL 8/CD) (NUMBERL 9/CD) (NUMBERL 10/CD))(NP (NUMBERL 0/CD) (NUMBERL 5/CD) (NUMBERL 10/CD))(NP (NUMBERL 15/CD) (NUMBERL 20/CD) (NUMBERL 25/CD))(NP (NUMBERL 30/CD) (NUMBERL 35/CD) (NUMBERL 40/CD rms/NNS))(NP (NUMBERL 6/CD))(NP (NUMBERL 0/CD) (NUMBERL 2/CD) (NUMBERL 4/CD))(NP (NUMBERL 6/CD) (NUMBERL 8/CD) (NUMBERL 10/CD))(NP (NUMBERL 12/CD) (NUMBERL 14/CD) (NUMBERL 16/CD))(NP (NUMBERL 0/CD) (NUMBERL 5/CD) (NUMBERL 10/CD))(NP (NUMBERL 15/CD) (NUMBERL 20/CD) (NUMBERL 25/CD))(NP (NUMBERL 30/CD) (NUMBERL 35/CD) (NUMBERL 40/CD))(NP (NUMBERL 7/CD))(NP (NUMBERL 0/CD) (NUMBERL 0,5/CD) (NUMBERL 1/CD))(NP (NUMBERL 1,5/CD) (NUMBERL 2/CD) (NUMBERL 2,5/CD))(NP (NUMBERL 3/CD) (NUMBERL 3,5/CD) (NUMBERL 4/CD))(NP (NUMBERL 8/CD))(NP (NUMBERL 4/CD))(NP (NUMBERL 6/CD))(NP (NUMBERL 5/CD))(NP (NUMBERL 746mb/CD) (NUMBERL 12.40s/CD) (NUMBERL 837mb/CD))(NP (NUMBERL 18.76s/CD) (NUMBERL 0.74/CD) (NUMBERL 0.70/CD))(NP (NUMBERL 264mb/CD) (NUMBERL 4.37s/CD) (NUMBERL 302mb/CD))(NP (NUMBERL 7.04s/CD) (NUMBERL 0.74/CD) (NUMBERL 0.71/CD))(NP (NUMBERL 332mb/CD) (NUMBERL 5.15s/CD) (NUMBERL 337mb/CD))(NP
  (NUMBERL 5.68s/CD)
  (NUMBERL 0.89/CD)
  (NUMBERL 0.86/CD straight/VBD))(NP (NUMBERL 33mb/CD) (NUMBERL 0.57s/CD) (NUMBERL 39mb/CD))(NP (NUMBERL 0.96s/CD) (NUMBERL 0.74/CD) (NUMBERL 0.74/CD wavi/NN))(NP (NUMBERL 528mb/CD) (NUMBERL 8.74s/CD) (NUMBERL 592mb/CD))(NP (NUMBERL 13.20s/CD) (NUMBERL 0.75/CD) (NUMBERL 0.71/CD wavi/NN))(NP (NUMBERL 190mb/CD) (NUMBERL 3.17s/CD) (NUMBERL 203mb/CD))(NP (NUMBERL 4.00s/CD) (NUMBERL 0.78/CD) (NUMBERL 0.76/CD tabl/NN))(NP (NUMBERL 5/CD))(NP (NUMBERL 6/CD))(NP (NUMBERL 5/CD))(NP (NUMBERL 7/CD))(NP (NUMBERL 9/CD))(NP (NUMBERL 9/CD))(NP (NUMBERL 16x16/CD))(NP (NUMBERL 6x6/CD))(NP (NUMBERL 4x4/CD))(NP (NUMBERL 1.68/CD))(NP (NUMBERL 87/CD))(NP (NUMBERL 310/CD))(NP (NUMBERL 1987/CD))(NP (NUMBERL 25/CD))(NP (NUMBERL 485493/CD))(NP (NUMBERL 26/CD))(NP (NUMBERL 395404/CD))(NP (NUMBERL 20/CD))(NP (NUMBERL 269278/CD))(NP (NUMBERL 3337/CD))(NP (NUMBERL 145153/CD))(NP (NUMBERL 1993/CD))(NP (NUMBERL 311320/CD))(NP (NUMBERL 780791/CD))(NP (NUMBERL 385392/CD))(NP (NUMBERL 177182/CD))(NP (NUMBERL 2001/CD))(NP (NUMBERL 1/CD))(NP (NUMBERL 212/CD))(NP (NUMBERL 2011/CD))(NP (NUMBERL 13/CD))(NP (NUMBERL 14/CD))(NP (NUMBERL 21/CD))(NP (NUMBERL 6572/CD))(NP (NUMBERL 27/CD))(NP (NUMBERL 33/CD))(NP (NUMBERL 18/CD))(NP (NUMBERL 119127/CD))(NP (NUMBERL 21/CD))(NP (NUMBERL 5564/CD))(NP (NUMBERL 2007/CD))
Size: 195
------
Found word! trace - theory - geometric
Found word! imag - theory - geometric
Found word! ray - theory - geometric
Found word! imag - theory - geometric
Found word! trace - theory - geometric
Found word! ray - theory - geometric
Found word! trace - theory - geometric
Found word! imag - theory - geometric
Found word! ray - theory - geometric
Found word! trace - theory - geometric
Found word! ray - theory - geometric
Found word! trace - theory - geometric
Found word! ray - theory - geometric
Found word! beam - theory - geometric
Found word! ray - theory - geometric
Found word! imag - theory - geometric
Found word! ray - theory - geometric
Found word! trace - theory - geometric
Found word! ray - theory - geometric
Found word! ray - theory - geometric
Found word! ray - theory - geometric
Found word! ray - theory - geometric
Found word! ray - theory - geometric
Found word! trace - theory - geometric
Found word! trace - theory - geometric
Found word! ray - theory - geometric
Found word! trace - theory - geometric
Found word! trace - theory - geometric
Found word! trace - theory - geometric
Found word! ray - theory - geometric
Found word! ray - theory - geometric
Found word! ray - theory - geometric
Found word! ray - theory - geometric
Found word! trace - theory - geometric
Found word! trace - theory - geometric
Found word! imag - theory - geometric
Found word! ray - theory - geometric
Found word! imag - theory - geometric
Found word! trace - theory - geometric
Found word! trace - theory - geometric
Found word! imag - theory - geometric
Found word! imag - theory - geometric
Found word! trace - theory - geometric
Found word! trace - theory - geometric
Found word! ray - theory - geometric
Found word! trace - theory - geometric
Found word! ray - theory - geometric
Found word! trace - theory - geometric
Found word! ray - theory - geometric
Found word! imag - theory - geometric
Found word! trace - theory - geometric
Found word! trace - theory - geometric
Found word! imag - theory - geometric
Found word! imag - theory - geometric
Found word! trace - theory - geometric
Found word! trace - theory - geometric
Found word! trace - theory - geometric
Found word! imag - theory - geometric
Found word! trace - theory - geometric
Found word! ray - theory - geometric
Found word! trace - theory - geometric
Found word! ray - theory - geometric
Found word! trace - theory - geometric
Found word! ray - theory - geometric
Found word! trace - theory - geometric
Found word! ray - theory - geometric
Found word! trace - theory - geometric
Found word! ray - theory - geometric
Found word! ray - theory - geometric
Found word! trace - theory - geometric
Found word! ray - theory - geometric
Found word! trace - theory - geometric
Found word! ray - theory - geometric
Found word! ray - theory - geometric
Found word! imag - theory - geometric
Found word! trace - theory - geometric
Found word! ray - theory - geometric
Found word! trace - theory - geometric
Found word! ray - theory - geometric
Found word! trace - theory - geometric
Found word! ray - theory - geometric
Found word! trace - theory - geometric
Found word! ray - theory - geometric
Found word! trace - theory - geometric
Found word! ray - theory - geometric
Found word! trace - theory - geometric
Found word! ray - theory - geometric
Found word! trace - theory - geometric
Found word! ray - theory - geometric
Found word! trace - theory - geometric
Found word! ray - theory - geometric
Found word! trace - theory - geometric
Found word! trace - theory - geometric
Found word! beam - theory - geometric
Found word! trace - theory - geometric
Found word! ray - theory - geometric
Statistical - 0, geometric - 96, wave - 0
