
numbered_entities(NP (NUMBERL 04/CD))(NP (NUMBERL 12/CD))(NP (NUMBERL three/CD))(NP (NUMBERL 10db/CD))(NP (NUMBERL 6,7/CD))(NP (NUMBERL 948.301/CD))(NP (NUMBERL 25/CD))(NP (NUMBERL 75.41m2/CD))(NP (NUMBERL 1/CD))(NP (NUMBERL three/CD))(NP (NUMBERL 0.5m/CD))(NP (NUMBERL one/CD))(NP (NUMBERL one/CD))(NP (NUMBERL 63.8/CD))(NP (NUMBERL 67.3/CD))(NP (NUMBERL 1/CD))(NP (NUMBERL 0.001/CD))(NP (NUMBERL 62.9/CD) (NUMBERL 8.2/CD) (NUMBERL 44.7/CD))(NP (NUMBERL 62.7/CD) (NUMBERL 77.7/CD) (NUMBERL 0.727/CD door/NN))(NP (NUMBERL 62.6/CD) (NUMBERL 8.3/CD) (NUMBERL 44.3/CD))(NP
  (NUMBERL 62.2/CD)
  (NUMBERL 820/CD blackboard/NN)
  (NUMBERL 61.5/CD))(NP (NUMBERL 9.2/CD) (NUMBERL 39.7/CD) (NUMBERL 60.2/CD))(NP (NUMBERL 63.8/CD) (NUMBERL 7.6/CD) (NUMBERL 44.7/CD))(NP
  (NUMBERL 64.7/CD)
  (NUMBERL 77.7/CD)
  (NUMBERL 0.069/CD afternoon/NN))(NP (NUMBERL 60.9/CD) (NUMBERL 9.2/CD) (NUMBERL 39.7/CD))(NP (NUMBERL 60.2/CD) (NUMBERL 83.0/CD period/NN))(NP (NUMBERL 62.7/CD) (NUMBERL 76/CD) (NUMBERL 44.3/CD))(NP (NUMBERL 61.7/CD) (NUMBERL 83.0/CD) (NUMBERL 0.642/CD break/NN))(NP (NUMBERL 62.0/CD) (NUMBERL 9.4/CD) (NUMBERL 39.7/CD))(NP
  (NUMBERL 62.7/CD)
  (NUMBERL 82.0/CD floor/NN)
  (NUMBERL 1st/CD floor/NN))(NP (NUMBERL 67.3/CD) (NUMBERL 9.3/CD) (NUMBERL 50.3/CD))(NP (NUMBERL 67.8/CD) (NUMBERL 83.0/CD) (NUMBERL 0.003/CD))(NP (NUMBERL 39.7/CD) (NUMBERL 59.0/CD) (NUMBERL 77.7/CD))(NP (NUMBERL 44.3/CD) (NUMBERL 62.3/CD) (NUMBERL 73.7/CD */NN))(NP (NUMBERL 20/CD) (NUMBERL 100.0/CD) (NUMBERL 249/CD))(NP (NUMBERL 88.9/CD) (NUMBERL 0.243/CD))(NP (NUMBERL 0/CD) (NUMBERL 0.0/CD) (NUMBERL 31/CD))(NP (NUMBERL 16/CD) (NUMBERL 80.0/CD) (NUMBERL 209/CD))(NP (NUMBERL 74.6/CD) (NUMBERL 0.593/CD))(NP (NUMBERL 4/CD) (NUMBERL 20.0/CD) (NUMBERL 71/CD))(NP (NUMBERL 16/CD) (NUMBERL 80.0/CD) (NUMBERL 149/CD))(NP (NUMBERL 53.2/CD) (NUMBERL 0.020/CD */NN))(NP (NUMBERL 4/CD) (NUMBERL 20.0/CD) (NUMBERL 131/CD))(NP (NUMBERL 17/CD) (NUMBERL 85.0/CD) (NUMBERL 151/CD))(NP (NUMBERL 53.9/CD) (NUMBERL 0.007/CD */NN))(NP (NUMBERL 3/CD) (NUMBERL 15.0/CD) (NUMBERL 129/CD))(NP (NUMBERL 16/CD) (NUMBERL 80.0/CD) (NUMBERL 190/CD))(NP (NUMBERL 67.9/CD) (NUMBERL 0.258/CD))(NP (NUMBERL 4/CD) (NUMBERL 20.0/CD) (NUMBERL 90/CD))(NP (NUMBERL 5/CD) (NUMBERL 25.0/CD) (NUMBERL 123/CD))(NP (NUMBERL 43.9/CD) (NUMBERL 0.098/CD))(NP (NUMBERL 15/CD) (NUMBERL 75.0/CD) (NUMBERL 157/CD))(NP (NUMBERL 15/CD) (NUMBERL 75.0/CD) (NUMBERL 150/CD))(NP (NUMBERL 53.6/CD) (NUMBERL 0.065/CD))(NP (NUMBERL 5/CD) (NUMBERL 25.0/CD) (NUMBERL 129/CD))(NP (NUMBERL 2/CD) (NUMBERL 10.0/CD) (NUMBERL 23/CD))(NP (NUMBERL 8.2/CD) (NUMBERL 0.677/CD))(NP (NUMBERL 18/CD) (NUMBERL 90.0/CD) (NUMBERL 257/CD))(NP (NUMBERL 91.8/CD))(NP (NUMBERL 4/CD) (NUMBERL 20.0/CD) (NUMBERL 19/CD))(NP (NUMBERL 6.8/CD) (NUMBERL 0.056/CD))(NP (NUMBERL 16/CD) (NUMBERL 80.0/CD) (NUMBERL 261/CD))(NP (NUMBERL 2/CD) (NUMBERL 10.0/CD) (NUMBERL 61/CD))(NP (NUMBERL 21.8/CD) (NUMBERL 0.267/CD))(NP (NUMBERL 18/CD) (NUMBERL 90.0/CD) (NUMBERL 219/CD))(NP (NUMBERL 6/CD) (NUMBERL 30.0/CD) (NUMBERL 56/CD))(NP (NUMBERL 20.0/CD) (NUMBERL 0.268/CD))(NP (NUMBERL 14/CD) (NUMBERL 70.0/CD) (NUMBERL 223/CD))(NP (NUMBERL 1/CD) (NUMBERL 5.0/CD) (NUMBERL 31/CD))(NP (NUMBERL 11.1/CD) (NUMBERL 0.707/CD))(NP (NUMBERL 19/CD) (NUMBERL 95.0/CD) (NUMBERL 248/CD))(NP (NUMBERL 88.6/CD))(NP (NUMBERL 1/CD) (NUMBERL 5.0/CD) (NUMBERL 21/CD))(NP (NUMBERL 7.5/CD) (NUMBERL 0.999/CD))(NP (NUMBERL 19/CD) (NUMBERL 95.0/CD) (NUMBERL 257/CD))(NP (NUMBERL 91.8/CD))(NP (NUMBERL 65/CD))(NP (NUMBERL 55db/CD))(NP (NUMBERL one/CD))(NP (NUMBERL eight/CD))(NP (NUMBERL one/CD))
Size: 81
------
Found word! pressur - theory - statistical
Found word! pressur - theory - statistical
Found word! pressur - theory - statistical
Found word! pressur - theory - statistical
Found word! pressur - theory - statistical
Found word! pressur - theory - statistical
Found word! statist - theory - statistical
Found word! pressur - theory - statistical
Found word! pressur - theory - statistical
Found word! pressur - theory - statistical
Found word! pressur - theory - statistical
Found word! pressur - theory - statistical
Found word! pressur - theory - statistical
Found word! statist - theory - statistical
Found word! pressur - theory - statistical
Found word! pressur - theory - statistical
Found word! pressur - theory - statistical
Found word! statist - theory - statistical
Found word! pressur - theory - statistical
Found word! pressur - theory - statistical
Found word! statist - theory - statistical
Found word! pressur - theory - statistical
Found word! statist - theory - statistical
Found word! statist - theory - statistical
Found word! pressur - theory - statistical
Found word! pressur - theory - statistical
Found word! pressur - theory - statistical
Found word! pressur - theory - statistical
Found word! pressur - theory - statistical
Found word! pressur - theory - statistical
Found word! pressur - theory - statistical
Found word! pressur - theory - statistical
Found word! pressur - theory - statistical
Found word! pressur - theory - statistical
Found word! qualit - theory - qualitative
statistical - 34, geometric - 0, wave - 0, qualitative - 1
The method's theory is statistical
Potentially qualitative method
